…
``` r
df_hno3 <- df_cleaned %>%
  filter(description %in% c("0.8% HNO3 A", "0.8% HNO3 B", "0.8% HNO3 C"),
         mass %in% c(6.5, 22.5, 23.5, 44.5, 58.5, 59.5, 62.5, 63.5, 65.5, 66.5, 69.5, 
                     70.5, 71.5, 72.5, 73.5, 74.5, 76.5, 77.5, 78.5, 81.5, 83.5, 91.5,
                     92.5, 99.5, 115.5, 120.5, 122.5, 139.5, 140.5, 141.5, 143.5, 144.5,
                     146.5, 147.5, 148.5, 151.5, 152.5, 159.5, 160.5, 204.5, 205.5, 212:229,
                     232.5))

#save(df_hno3, file = "C:/Users/rmartin/OneDrive - Environmental Protection Agency (EPA)/Documents/ICPMS_methods/ICPMS_7d_Expt/model_files/df_hno3.rda")

df_hno3 %>% print()
```

    ## # A tibble: 3,780 × 9
    ##    sheet         mass   cps  burn cps_orig sample   day sample_order description
    ##    <chr>        <dbl> <int> <int>    <dbl> <chr>  <dbl> <chr>        <chr>      
    ##  1 4BW32_01_1_1   6.5     0     1        0 4BW32      1 01           0.8% HNO3 A
    ##  2 4BW32_01_1_1  22.5     2     1        4 4BW32      1 01           0.8% HNO3 A
    ##  3 4BW32_01_1_1  23.5     1     1        2 4BW32      1 01           0.8% HNO3 A
    ##  4 4BW32_01_1_1  44.5     0     1        0 4BW32      1 01           0.8% HNO3 A
    ##  5 4BW32_01_1_1  58.5     2     1        4 4BW32      1 01           0.8% HNO3 A
    ##  6 4BW32_01_1_1  59.5     0     1        0 4BW32      1 01           0.8% HNO3 A
    ##  7 4BW32_01_1_1  62.5     0     1        0 4BW32      1 01           0.8% HNO3 A
    ##  8 4BW32_01_1_1  63.5     4     1        8 4BW32      1 01           0.8% HNO3 A
    ##  9 4BW32_01_1_1  65.5     0     1        0 4BW32      1 01           0.8% HNO3 A
    ## 10 4BW32_01_1_1  66.5     0     1        0 4BW32      1 01           0.8% HNO3 A
    ## # ℹ 3,770 more rows
Create data frame of analyte m/z only.

``` r
df_analyte <- df_cleaned %>%
  filter(description %in% c("0.8% HNO3 A", "0.8% HNO3 B", "0.8% HNO3 C"),
         mass %in% c(9, 27, 51, 52, 55, 59, 60, 63, 66, 75, 78, 98, 
                     107, 111, 123, 137, 143, 145, 147, 149, 150, 
                     155, 157, 205, 206, 232, 238))

#save(df_analyte, file = "C:/Users/rmartin/OneDrive - Environmental Protection Agency (EPA)/Documents/ICPMS_methods/ICPMS_7d_Expt/model_files/df_analyte.rda")

df_analyte %>% print()
```

    ## # A tibble: 1,701 × 9
    ##    sheet         mass   cps  burn cps_orig sample   day sample_order description
    ##    <chr>        <dbl> <int> <int>    <dbl> <chr>  <dbl> <chr>        <chr>      
    ##  1 4BW32_01_1_1     9     1     1      2   4BW32      1 01           0.8% HNO3 A
    ##  2 4BW32_01_1_1    27     0     1      0   4BW32      1 01           0.8% HNO3 A
    ##  3 4BW32_01_1_1    51     5     1     10   4BW32      1 01           0.8% HNO3 A
    ##  4 4BW32_01_1_1    52   112     1    224.  4BW32      1 01           0.8% HNO3 A
    ##  5 4BW32_01_1_1    55    36     1     72.0 4BW32      1 01           0.8% HNO3 A
    ##  6 4BW32_01_1_1    59    31     1     62.0 4BW32      1 01           0.8% HNO3 A
    ##  7 4BW32_01_1_1    60   343     1    686.  4BW32      1 01           0.8% HNO3 A
    ##  8 4BW32_01_1_1    63    38     1     76.0 4BW32      1 01           0.8% HNO3 A
    ##  9 4BW32_01_1_1    66     8     1     16   4BW32      1 01           0.8% HNO3 A
    ## 10 4BW32_01_1_1    75     1     1      2   4BW32      1 01           0.8% HNO3 A
    ## # ℹ 1,691 more rows

Create data frame of daily m/z only.

``` r
df_daily <- df_cleaned %>%
  filter(description %in% c("Daily Solution New Na with 100ppb Er 5% HCL"),
         mass %in% c(51, 53, 75, 76, 77, 78, 156, 157, 248, 249))

#save(df_daily, file = "C:/Users/rmartin/OneDrive - Environmental Protection Agency (EPA)/Documents/ICPMS_methods/ICPMS_7d_Expt/model_files/df_daily.rda")

df_daily %>% print()
```

    ## # A tibble: 210 × 9
    ##    sheet         mass   cps  burn cps_orig sample   day sample_order description
    ##    <chr>        <dbl> <int> <int>    <dbl> <chr>  <dbl> <chr>        <chr>      
    ##  1 4BW32_04_1_1    51    24     1     48.0 4BW32      1 04           Daily Solu…
    ##  2 4BW32_04_1_1    53    19     1     38.0 4BW32      1 04           Daily Solu…
    ##  3 4BW32_04_1_1    75     4     1      8   4BW32      1 04           Daily Solu…
    ##  4 4BW32_04_1_1    76     8     1     16   4BW32      1 04           Daily Solu…
    ##  5 4BW32_04_1_1    77     3     1      6   4BW32      1 04           Daily Solu…
    ##  6 4BW32_04_1_1    78     0     1      0   4BW32      1 04           Daily Solu…
    ##  7 4BW32_04_1_1   156   209     1    418.  4BW32      1 04           Daily Solu…
    ##  8 4BW32_04_1_1   157    50     1    100.  4BW32      1 04           Daily Solu…
    ##  9 4BW32_04_1_1   248   358     1    716.  4BW32      1 04           Daily Solu…
    ## 10 4BW32_04_1_1   249    92     1    184.  4BW32      1 04           Daily Solu…
    ## # ℹ 200 more rows
…
    ##           elpd_diff se_diff
    ## hno3_mod6  0.0       0.0   
    ## hno3_mod5 -1.7       1.5

# 5 Predict to mass

Make a data frame with hypothetical mass, day, burn, and sample type
(“descr”) to predict to

``` r
df_X <- tibble(mass = seq(6, 249, 0.5), day = 8, burn = 1, description = "HNO3")
print(df_X)
```

    ## # A tibble: 487 × 4
    ##     mass   day  burn description
    ##    <dbl> <dbl> <dbl> <chr>      
    ##  1   6       8     1 HNO3       
    ##  2   6.5     8     1 HNO3       
    ##  3   7       8     1 HNO3       
    ##  4   7.5     8     1 HNO3       
    ##  5   8       8     1 HNO3       
    ##  6   8.5     8     1 HNO3       
    ##  7   9       8     1 HNO3       
    ##  8   9.5     8     1 HNO3       
    ##  9  10       8     1 HNO3       
    ## 10  10.5     8     1 HNO3       
    ## # ℹ 477 more rows

``` r
#save(df_X, file = "C:/Users/rmartin/OneDrive - Environmental Protection Agency (EPA)/Documents/ICPMS_methods/ICPMS_7d_Expt/model_files/df_X.rda")
```

Predict to the hypothetical data.

``` r
pred_X <- df_X %>%
  add_predicted_draws(hno3_mod6, allow_new_levels = TRUE)

print(pred_X)
```

    ## # A tibble: 2,922,000 × 9
    ## # Groups:   mass, day, burn, description, .row [487]
    ##     mass   day  burn description  .row .chain .iteration .draw .prediction
    ##    <dbl> <dbl> <dbl> <chr>       <int>  <int>      <int> <int>       <dbl>
    ##  1     6     8     1 HNO3            1     NA         NA     1           0
    ##  2     6     8     1 HNO3            1     NA         NA     2           0
    ##  3     6     8     1 HNO3            1     NA         NA     3           0
    ##  4     6     8     1 HNO3            1     NA         NA     4           2
    ##  5     6     8     1 HNO3            1     NA         NA     5           0
    ##  6     6     8     1 HNO3            1     NA         NA     6           1
    ##  7     6     8     1 HNO3            1     NA         NA     7           0
    ##  8     6     8     1 HNO3            1     NA         NA     8           1
    ##  9     6     8     1 HNO3            1     NA         NA     9           0
    ## 10     6     8     1 HNO3            1     NA         NA    10           2
    ## # ℹ 2,921,990 more rows
…
Summarize the cps predictions (median, quantiles) by m/z.

``` r
pred_X %>%
  group_by(mass) %>%
  median_qi(.prediction) %>%
  select(mass, .prediction, .lower, .upper) %>%
  rename(posterior_median = .prediction,
         lower_95_CI = .lower,
         upper_95_CI = .upper)
```

    ## # A tibble: 487 × 4
    ##     mass posterior_median lower_95_CI upper_95_CI
    ##    <dbl>            <dbl>       <dbl>       <dbl>
    ##  1   6                  0           0           4
    ##  2   6.5                0           0           4
    ##  3   7                  0           0           4
    ##  4   7.5                0           0           4
    ##  5   8                  0           0           4
    ##  6   8.5                0           0           4
    ##  7   9                  0           0           4
    ##  8   9.5                0           0           4
    ##  9  10                  0           0           4
    ## 10  10.5                0           0           4
    ## # ℹ 477 more rows
…
<img src="Ideal_Background_HNO3_Models_files/figure-gfm/plot_predict_X_3-1.png" style="display: block; margin: auto;" />

# 6 Predict avg of 3 burns at m/z

Make a data frame again, but this time with 3 burns, in order to take
their average.

``` r
df_X_avg <- tibble(expand.grid(mass = seq(6, 249, 0.5), day = 8, burn = 1:3, description = "HNO3"))
print(df_X_avg)
```

    ## # A tibble: 1,461 × 4
    ##     mass   day  burn description
    ##    <dbl> <dbl> <int> <fct>      
    ##  1   6       8     1 HNO3       
    ##  2   6.5     8     1 HNO3       
    ##  3   7       8     1 HNO3       
    ##  4   7.5     8     1 HNO3       
    ##  5   8       8     1 HNO3       
    ##  6   8.5     8     1 HNO3       
    ##  7   9       8     1 HNO3       
    ##  8   9.5     8     1 HNO3       
    ##  9  10       8     1 HNO3       
    ## 10  10.5     8     1 HNO3       
    ## # ℹ 1,451 more rows
…
``` r
pred_X_avg <- df_X_avg %>%
  add_predicted_draws(hno3_mod6, allow_new_levels = TRUE) %>%
  group_by(mass, .draw) %>%
  summarize(avg_CPS = mean(.prediction))
```

    ## `summarise()` has grouped output by 'mass'. You can override using the
    ## `.groups` argument.

``` r
print(pred_X_avg)
```

    ## # A tibble: 2,922,000 × 3
    ## # Groups:   mass [487]
    ##     mass .draw avg_CPS
    ##    <dbl> <int>   <dbl>
    ##  1     6     1   0.333
    ##  2     6     2   2    
    ##  3     6     3   1    
    ##  4     6     4   1    
    ##  5     6     5   0.667
    ##  6     6     6   1.33 
    ##  7     6     7   1.33 
    ##  8     6     8   1    
    ##  9     6     9   0.333
    ## 10     6    10   0    
    ## # ℹ 2,921,990 more rows
…
``` r
df_hno3_avg <- df_hno3 %>%
  group_by(description, day, mass, sample_order) %>%
  mutate(description = "Ideal background") %>%
  summarise(avg_cps = mean(cps), .groups = "drop") 

#save(df_hno3_avg, file = "C:/Users/rmartin/OneDrive - Environmental Protection Agency (EPA)/Documents/ICPMS_methods/ICPMS_7d_Expt/model_files/df_hno3_avg.rda")

df_hno3_avg
```

    ## # A tibble: 1,260 × 5
    ##    description        day  mass sample_order avg_cps
    ##    <chr>            <dbl> <dbl> <chr>          <dbl>
    ##  1 Ideal background     1   6.5 01             2.67 
    ##  2 Ideal background     1   6.5 06             1.33 
    ##  3 Ideal background     1   6.5 15             1.67 
    ##  4 Ideal background     1  22.5 01             2    
    ##  5 Ideal background     1  22.5 06             1.33 
    ##  6 Ideal background     1  22.5 15             2.67 
    ##  7 Ideal background     1  23.5 01             2    
    ##  8 Ideal background     1  23.5 06             0.333
    ##  9 Ideal background     1  23.5 15             0    
    ## 10 Ideal background     1  44.5 01             0.333
    ## # ℹ 1,250 more rows
…
#save(df_analyte_avg, file = "C:/Users/rmartin/OneDrive - Environmental Protection Agency (EPA)/Documents/ICPMS_methods/ICPMS_7d_Expt/model_files/df_analyte_avg.rda")

df_analyte_avg
```

    ## # A tibble: 567 × 5
    ##    description   day  mass sample_order avg_cps
    ##    <chr>       <dbl> <dbl> <chr>          <dbl>
    ##  1 Analytes        1     9 01             0.333
    ##  2 Analytes        1     9 06             3.33 
    ##  3 Analytes        1     9 15             1.33 
    ##  4 Analytes        1    27 01             2.33 
    ##  5 Analytes        1    27 06             2.33 
    ##  6 Analytes        1    27 15             4    
    ##  7 Analytes        1    51 01             7.33 
    ##  8 Analytes        1    51 06             9    
    ##  9 Analytes        1    51 15             7    
    ## 10 Analytes        1    52 01           111.   
    ## # ℹ 557 more rows
…
``` r
df_daily_avg <- df_cleaned %>%
  filter(description %in% c("Daily Solution New Na with 100ppb Er 5% HCL"),
         mass %in% c(51, 53, 75, 76, 77, 78, 156, 157, 248, 249)) %>%
  group_by(description, day, mass, sample_order) %>%
  mutate(description = "Daily solution") %>%
  summarise(avg_cps = mean(cps), .groups = "drop")

#save(df_daily_avg, file = "C:/Users/rmartin/OneDrive - Environmental Protection Agency (EPA)/Documents/ICPMS_methods/ICPMS_7d_Expt/model_files/df_daily_avg.rda")

df_daily_avg
```

    ## # A tibble: 70 × 5
    ##    description      day  mass sample_order avg_cps
    ##    <chr>          <dbl> <dbl> <chr>          <dbl>
    ##  1 Daily solution     1    51 04             30   
    ##  2 Daily solution     1    53 04             27   
    ##  3 Daily solution     1    75 04              4.33
    ##  4 Daily solution     1    76 04              5   
    ##  5 Daily solution     1    77 04              2.67
    ##  6 Daily solution     1    78 04              3.33
    ##  7 Daily solution     1   156 04            193   
    ##  8 Daily solution     1   157 04             60.3 
    ##  9 Daily solution     1   248 04            352.  
    ## 10 Daily solution     1   249 04             84.3 
    ## # ℹ 60 more rows

Combine all three averaged observed datasets: Ideal Background (HNO3
0.8%, analyte solutions, and daily solutions)

``` r
df_observed_avg <- bind_rows(df_hno3_avg, df_analyte_avg, df_daily_avg) %>%
  mutate(description = factor(description))

#save(df_observed_avg, file = "C:/Users/rmartin/OneDrive - Environmental Protection Agency (EPA)/Documents/ICPMS_methods/ICPMS_7d_Expt/model_files/df_observed_avg.rda")

df_observed_avg
```

    ## # A tibble: 1,897 × 5
    ##    description        day  mass sample_order avg_cps
    ##    <fct>            <dbl> <dbl> <chr>          <dbl>
    ##  1 Ideal background     1   6.5 01             2.67 
    ##  2 Ideal background     1   6.5 06             1.33 
    ##  3 Ideal background     1   6.5 15             1.67 
    ##  4 Ideal background     1  22.5 01             2    
    ##  5 Ideal background     1  22.5 06             1.33 
    ##  6 Ideal background     1  22.5 15             2.67 
    ##  7 Ideal background     1  23.5 01             2    
    ##  8 Ideal background     1  23.5 06             0.333
    ##  9 Ideal background     1  23.5 15             0    
    ## 10 Ideal background     1  44.5 01             0.333
    ## # ℹ 1,887 more rows

Summarize the cps predictions (median, quantiles) by m/z.

``` r
pred_X_avg %>%
  group_by(mass) %>%
  median_qi(avg_CPS, .width = 0.99) %>%
  select(mass, avg_CPS, .lower, .upper) %>%
  rename(posterior_median = avg_CPS,
         lower_99_CI = .lower,
         upper_99_CI = .upper)
```

    ## # A tibble: 487 × 4
    ##     mass posterior_median lower_99_CI upper_99_CI
    ##    <dbl>            <dbl>       <dbl>       <dbl>
    ##  1   6              0.667           0        3   
    ##  2   6.5            0.667           0        3.33
    ##  3   7              0.667           0        3.33
    ##  4   7.5            0.667           0        3.33
    ##  5   8              0.667           0        3   
    ##  6   8.5            0.667           0        3   
    ##  7   9              0.667           0        3   
    ##  8   9.5            0.667           0        3.33
    ##  9  10              0.667           0        3.33
    ## 10  10.5            0.667           0        3.33
    ## # ℹ 477 more rows
…
